0.0013426 600000 0.0102 0.00998657 0.995956 0
1.05241 600042 0.0118 0.00505779 0.476685 0
2.12092 600083 0.0132 0.00275955 0.17755 0
3.05355 600119 0.0136 0.00248635 0.170141 0
4.02714 600156 0.0134 0.00200235 0.326205 0
5.0022 600192 0.0136 0.00193664 0.17426 0
6.04248 600230 0.0182 0.00169398 0.222795 0
7.01187 600265 0.0198 0.00220489 0.198675 0
8.06413 600302 0.0234 0.00172349 0.161937 0
9.057 600337 0.0258 0.00197237 0.182726 0
10.0052 600369 0.028 0.00199078 0.181473 0
11.0027 600402 0.0298 0.00293097 0.252525 0
12.0227 600436 0.0336 0.00282049 0.25769 0
13.0006 600468 0.0362 0.003412 0.33472 0
14.0094 600500 0.0418 0.0042541 0.391173 0
15.0086 600532 0.0418 0.00585452 0.515711 0
16.0289 600563 0.0464 0.00628767 0.566095 0
17.002 600593 0.0492 0.00690076 0.585907 0
18.0122 600623 0.0566 0.00631091 0.56042 0
19.0064 600652 0.061 0.00730951 0.641499 0
20.0005 600681 0.066 0.00831689 0.74547 0
21.0049 600710 0.074 0.00836597 0.72212 0
22.0106 600738 0.0802 0.00821373 0.705249 0
23.0071 600765 0.09 0.00905448 0.775319 0
24.0031 600792 0.096 0.00992912 0.886087 0
25.0016 600819 0.1062 0.0113689 0.990033 0
26.0024 600845 0.1186 0.0112878 1.01089 0
27.0001 600871 0.1342 0.0137382 1.21027 0
28.002 600896 0.1494 0.0144931 1.28466 0
29.0081 600921 0.1576 0.018252 1.58441 0
30.0011 600945 0.1694 0.0200781 1.77907 0
31.0006 600970 0.1868 0.018091 1.59953 0
32.0006 600993 0.1984 0.018949 1.6659 0
33.0007 601017 0.2102 0.0248391 2.15479 0
34.0019 601040 0.226 0.0259656 2.28781 0
35.001 601062 0.2396 0.0295647 2.535 0
36.002 601084 0.2624 0.0305291 2.67003 0
37.0026 601106 0.2808 0.0320926 2.78084 0
38.0018 601128 0.2982 0.0346629 3.0297 0
39.0023 601149 0.3186 0.0355114 3.0751 0
40.0011 601169 0.3392 0.0359556 3.14655 0
41.0004 601190 0.3652 0.0374808 3.31642 0
42.0023 601210 0.3922 0.0443118 3.85791 0
43.002 601230 0.416 0.0479947 4.16001 0
44.0017 601249 0.4378 0.0539889 4.67709 0
45.0007 601268 0.4618 0.052987 4.66872 0
46.0007 601287 0.4744 0.0550302 4.78538 0
47.0002 601305 0.4942 0.058413 5.0687 0
48.0048 601324 0.5136 0.0606135 5.33057 0
49.0013 601341 0.5372 0.0637575 5.54696 0
50.0043 601359 0.5524 0.0644651 5.62787 0
51.0004 601376 0.572 0.0667373 5.82849 0
52.0037 601393 0.5896 0.074433 6.47762 0
53.0014 601410 0.6132 0.0696976 6.09538 0
54.0013 601426 0.6236 0.0801829 6.92978 0
55 601443 0.6336 0.0792803 6.89226 0
56.0011 601458 0.6418 0.0805095 7.0112 0
57.0012 601474 0.653 0.0842662 7.41085 0
58.0006 601490 0.672 0.0806712 7.00721 0
59.0041 601505 0.6846 0.077907 6.87868 0
60.0008 601520 0.705 0.0841899 7.33941 0
61 601534 0.7166 0.0877337 7.56159 0
62.0003 601549 0.7324 0.0862002 7.50445 0
63.0001 601563 0.7556 0.0891425 7.73927 0
64.001 601577 0.7776 0.0886338 7.69858 0
65.0003 601590 0.772 0.1034 8.8999 0
66.0018 601604 0.78 0.0969784 8.51765 0
67.0003 601617 0.7984 0.0990272 8.59388 0
68.0011 601630 0.8138 0.0990755 8.55395 0
69.0004 601643 0.827 0.102947 8.86657 0
70.0013 601656 0.8358 0.103684 9.10981 0
71.0007 601668 0.8562 0.105223 9.13572 0
72.0002 601680 0.8694 0.103836 9.06136 0
73.0001 601692 0.8688 0.105136 9.01287 0
74.001 601704 0.8624 0.111374 9.69897 0
75.0002 601715 0.8692 0.108598 9.42555 0
76.0002 601727 0.873 0.105731 9.16139 0
77.0006 601738 0.8736 0.111767 9.67824 0
78.0001 601749 0.8764 0.108132 9.43401 0
79.0002 601760 0.8806 0.0991745 8.7144 0
80.0007 601771 0.9012 0.102016 8.96567 0
81.0015 601781 0.9098 0.108227 9.34929 0
82.0002 601791 0.9028 0.112933 9.80324 0
83.0004 601802 0.9048 0.114245 9.93883 0
84.0023 601812 0.9236 0.114978 10.0723 0
85.0001 601821 0.9056 0.114673 10.06 0
86.001 601831 0.9042 0.112807 9.7742 0
87.0011 601841 0.9154 0.106108 9.20596 0
88.0004 601850 0.9104 0.109829 9.49092 0
89.0005 601859 0.8892 0.111511 9.80432 0
90.0003 601868 0.8944 0.110169 9.62673 0
91.0002 601877 0.8878 0.110845 9.59091 0
92.0012 601886 0.8998 0.112146 9.69005 0
93.0001 601894 0.9074 0.108389 9.50114 0
94.0011 601903 0.9274 0.110285 9.52516 0
95.0005 601911 0.9226 0.117744 10.3559 0
96.0002 601919 0.9344 0.114084 9.86651 0
97.0003 601927 0.9296 0.110794 9.60463 0
98.0002 601935 0.91 0.116121 10.0071 0
99.0005 601943 0.9108 0.115493 10.1239 0
100 601951 0.9128 0.111816 9.83311 0
