Inputfile created at: 13:23:10 Tue 14 Jun '16 
# Parameters used:
# Omega=5000,'
# lambdaT=10000, deltaT=0.0166,
# k=2.4e-08', eps=0.85, eta=0.001,
# aL=0.1, aLs=0.1, aLC=0.0, aLC2=0.0, aLT=1.0,
# deltaL= 0.001, r= 0.2, Lmax: 1.888,
# adiabaticmethod=1,
# deltaTS=1.0, lambdaV=2000, deltaV=23
# T0=600000, L0=0.01, TS0=0.01, V0=1
Inputfile created at: 13:24:54 Tue 14 Jun '16 
# Parameters used:
# Omega=5000,'
# lambdaT=10000, deltaT=0.0166,
# k=2.4e-08', eps=0.85, eta=0.001,
# aL=0.1, aLs=0.1, aLC=0.0, aLC2=0.0, aLT=1.0,
# deltaL= 0.001, r= 0.2, Lmax: 1.888,
# adiabaticmethod=1,
# deltaTS=1.0, lambdaV=2000, deltaV=23
# T0=600000, L0=0.01, TS0=0.01, V0=1
RNG Seed used: 43925906071710
Aded Reaction: T Production 0
Aded Reaction: T Death 0
Aded Reaction: T infection into L 0
Aded Reaction: T infection into TS 0
Aded Reaction: L Production 0
Aded Reaction: L death 0
Aded Reaction: L homeostatic death 0
Aded Reaction: L activation into TS 0
Aded Reaction: TS death 0
Aded Reaction: V production from TS 0
Aded Reaction: V death 0
Aded Reaction: V infection failure 0
Setting adiabatic reaction: T Production
Setting adiabatic reaction: T Death
Setting adiabatic reaction: V production from TS
Setting adiabatic reaction: V death
Setting adiabatic reaction: V infection failure
Setting adiabatic reaction: TS death
Running Integration algorithm...Done!
Final state: (T: 3009753733.931325  L: 4678.000000  TS: 548.730996  V: 48003.115747  )
Inputfile created at: 13:26:18 Tue 14 Jun '16 
# Parameters used:
# Omega=5000,'
# lambdaT=10000, deltaT=0.0166,
# k=2.4e-08', eps=0.85, eta=0.001,
# aL=0.1, aLs=0.1, aLC=0.0, aLC2=0.0, aLT=1.0,
# deltaL= 0.001, r= 0.2, Lmax: 1.888,
# adiabaticmethod=1,
# deltaTS=1.0, lambdaV=2000, deltaV=23
# T0=600000, L0=0.01, TS0=0.01, V0=1
RNG Seed used: 44002135762026
Aded Reaction: T Production 0
Aded Reaction: T Death 0
Aded Reaction: T infection into L 0
Aded Reaction: T infection into TS 0
Aded Reaction: L Production 0
Aded Reaction: L death 0
Aded Reaction: L homeostatic death 0
Aded Reaction: L activation into TS 0
Aded Reaction: TS death 0
Aded Reaction: V production from TS 0
Aded Reaction: V death 0
Aded Reaction: V infection failure 0
Setting adiabatic reaction: T Production
Setting adiabatic reaction: T Death
Setting adiabatic reaction: V production from TS
Setting adiabatic reaction: V death
Setting adiabatic reaction: V infection failure
Setting adiabatic reaction: TS death
Running Integration algorithm...Done!
Final state: (T: 3009754281.339992  L: 4463.000000  TS: 545.850376  V: 47338.192299  )
